<?xml version="1.0" encoding="utf-8"?>
<!-- Generator: Adobe Illustrator 16.0.0, SVG Export Plug-In . SVG Version: 6.00 Build 0)  -->
<!DOCTYPE svg PUBLIC "-//W3C//DTD SVG 1.1//EN" "http://www.w3.org/Graphics/SVG/1.1/DTD/svg11.dtd">
<svg version="1.1" id="Capa_1" xmlns="http://www.w3.org/2000/svg" xmlns:xlink="http://www.w3.org/1999/xlink" x="0px" y="0px"
	 width="512px" height="512px" viewBox="0 0 512 512" enable-background="new 0 0 512 512" xml:space="preserve">
<path d="M469.344,48H400V16c0-8.849-7.152-16-16-16s-16,7.151-16,16v32h-96V16c0-8.849-7.168-16-16-16s-16,7.151-16,16v32h-96V16
	c0-8.849-7.168-16-16-16s-16,7.151-16,16v32H42.672C19.104,48,0,67.088,0,90.656v378.672C0,492.896,19.104,512,42.672,512h426.672
	C492.912,512,512,492.896,512,469.327V90.656C512,67.088,492.912,48,469.344,48z M480,469.327c0,5.889-4.784,10.673-10.656,10.673
	H42.672C36.784,480,32,475.216,32,469.327V90.656C32,84.784,36.784,80,42.672,80H112v32c0,8.848,7.168,16,16,16s16-7.152,16-16V80
	h96v32c0,8.848,7.168,16,16,16s16-7.152,16-16V80h96v32c0,8.848,7.152,16,16,16s16-7.152,16-16V80h69.344
	C475.216,80,480,84.784,480,90.656V469.327z"/>
<rect x="112" y="192" fill="#00AAF7" width="64" height="48"/>
<rect x="112" y="272" fill="#00AAF7" width="64" height="48"/>
<rect x="112" y="352" fill="#00AAF7" width="64" height="48"/>
<rect x="224" y="352" fill="#00AAF7" width="64" height="48"/>
<rect x="224" y="272" fill="#00AAF7" width="64" height="48"/>
<rect x="224" y="192" fill="#00AAF7" width="64" height="48"/>
<rect x="336" y="352" fill="#00AAF7" width="64" height="48"/>
<rect x="336" y="272" fill="#00AAF7" width="64" height="48"/>
<rect x="336" y="192" fill="#00AAF7" width="64" height="48"/>
</svg>
